{
    "jet_collection": "AntiKt4EMPFlowJets",
    "calibration": {
        "file": "fragments/pflow-calibration.json"
    },
    "selection": {
        "file": "fragments/pflow-selection.json"
    },
    "vertex_collection": "PrimaryVertices",
    "dl2_configs": [
        {
          "nn_file_path": "BTagging/20220509/gn1/antikt4empflow/network.onnx",
          "engine": "gnn"
        }
    ],
    "variables": {
        "file": "fragments/pflow-variables-all.json",
        "jet" : {
            "ints" : [
                "n_tracks"
            ],
            "uints": ["jetFoldHash", "jetFoldHash_noHits"]
        },
        "btagging" : {
            "ints" : [],
            "floats": [
                "GN120220509_pb",
                "GN120220509_pc",
                "GN120220509_pu",
                "GN2v00_pb",
                "GN2v00_pc",
                "GN2v00_pu",
                "GN2v01_pb",
                "GN2v01_pc",
                "GN2v01_pu",
                "GN2v01_ptau"
            ],
            "chars": []
        },
        "default_mapping": {
            "file": "fragments/default-mapping.json"
        }
    },
    "tracks": [
        {
            "n_to_save": 40,
            "selection": {
                "file": "fragments/r22default-track-cuts.json"
            },
            "sort_order": "d0_significance",
            "btagging_link": "btaggingLink",
            "input_name": "BTagTrackToJetAssociator",
            "output_name": "tracks",
            "variables": {
                "file": "fragments/pflow-track-variables-all.json",
                 "chars": [
                    "GN2v01_TrackOrigin",
                    "GN2v01_VertexIndex"
                ]
            },
            "ip_prefix": "btagIp_"
        }
    ],
    "truths": [
        {
            "file": "fragments/overlap-leptons-TRUTH3.json"
        },
        {
            "association": {
                "file": "fragments/baseline-truth-kinematics.json",
                "particles": "promptLepton"
            },
            "decorate_summary": true
        }
    ],
    "decorate": {
        "jet_aug": false,
        "btag_jes": true,
        "soft_muon": false,
        "track_sv_info": true,
        "lepton_decay_label": true
    },
    "btagging_link": "btaggingLink"
}
